Lab0/decoder7_restored/simulation/qsim/decoder7.msim.vcd
$comment
	File created using the following command:
		vcd file decoder7.msim.vcd -direction
$end
$date
	Wed May 28 17:11:53 2025
$end
$version
	ModelSim Version 10.5b
$end
$timescale
	1ps
$end

$scope module decoder7_vlg_vec_tst $end
$var reg 1 ! Clk $end
$var reg 4 " In [3:0] $end
$var wire 1 # Out [6] $end
$var wire 1 $ Out [5] $end
$var wire 1 % Out [4] $end
$var wire 1 & Out [3] $end
$var wire 1 ' Out [2] $end
$var wire 1 ( Out [1] $end
$var wire 1 ) Out [0] $end

$scope module i1 $end
$var wire 1 * gnd $end
$var wire 1 + vcc $end
$var wire 1 , unknown $end
$var tri1 1 - devclrn $end
$var tri1 1 . devpor $end
$var tri1 1 / devoe $end
$var wire 1 0 Out[0]~output_o $end
$var wire 1 1 Out[1]~output_o $end
$var wire 1 2 Out[2]~output_o $end
$var wire 1 3 Out[3]~output_o $end
$var wire 1 4 Out[4]~output_o $end
$var wire 1 5 Out[5]~output_o $end
$var wire 1 6 Out[6]~output_o $end
$var wire 1 7 Clk~input_o $end
$var wire 1 8 Clk~inputclkctrl_outclk $end
$var wire 1 9 In[0]~input_o $end
$var wire 1 : Rin[0]~feeder_combout $end
$var wire 1 ; In[1]~input_o $end
$var wire 1 < Rin[1]~feeder_combout $end
$var wire 1 = In[3]~input_o $end
$var wire 1 > Rin[3]~feeder_combout $end
$var wire 1 ? In[2]~input_o $end
$var wire 1 @ Rin[2]~feeder_combout $end
$var wire 1 A WideOr6~0_combout $end
$var wire 1 B Out[0]~reg0_q $end
$var wire 1 C WideOr5~0_combout $end
$var wire 1 D Out[1]~reg0_q $end
$var wire 1 E WideOr4~0_combout $end
$var wire 1 F Out[2]~reg0_q $end
$var wire 1 G WideOr3~0_combout $end
$var wire 1 H Out[3]~reg0_q $end
$var wire 1 I WideOr2~0_combout $end
$var wire 1 J Out[4]~reg0_q $end
$var wire 1 K WideOr1~0_combout $end
$var wire 1 L Out[5]~reg0_q $end
$var wire 1 M WideOr0~0_combout $end
$var wire 1 N Out[6]~reg0_q $end
$var wire 1 O Rin [3] $end
$var wire 1 P Rin [2] $end
$var wire 1 Q Rin [1] $end
$var wire 1 R Rin [0] $end
$upscope $end
$upscope $end
$enddefinitions $end
#0
$dumpvars
0!
b0 "
x)
x(
x'
x&
x%
x$
x#
0*
1+
x,
1-
1.
1/
x0
x1
x2
x3
x4
x5
x6
07
x8
09
x:
0;
x<
0=
x>
0?
x@
xA
0B
xC
0D
xE
0F
xG
0H
xI
0J
xK
0L
xM
0N
0R
0Q
0P
0O
$end
#173
08
#692
0C
#859
0K
#868
0A
#877
0E
#879
0I
#887
1M
#889
0G
#3117
0:
#3344
03
04
0%
0&
#3441
0@
#3486
0<
#3492
0>
#3532
05
0$
#3620
01
0(
#3631
00
0)
#3642
06
0#
#3652
02
0'
#10000
1!
#10730
17
#10917
18
#13318
1N
#16949
16
1#
#20000
b1 "
0!
#20680
19
#20836
07
#21009
08
#23561
1:
#30000
1!
#30730
17
#30917
18
#33318
1R
#33905
1I
#34070
1K
#34074
1G
#34077
1A
#40000
b11 "
b10 "
0!
#40680
1;
#40786
09
#40836
07
#41009
08
#43903
0:
#43935
1<
#50000
1!
#50730
17
#50917
18
#53318
0R
1Q
1B
1H
1J
1L
#54013
1E
0I
#54098
0M
#54099
0A
0G
#56650
14
1%
#56652
13
1&
#56875
15
1$
#56941
10
1)
#60000
b11 "
0!
#60680
19
#60836
07
#61009
08
#63561
1:
#70000
1!
#70730
17
#70917
18
#73318
1R
0B
1F
0H
0J
0N
#73894
0E
#73905
1I
#76662
04
03
0&
0%
#76949
00
0)
#76959
12
1'
#76960
06
0#
#80000
b111 "
b101 "
b100 "
0!
#80670
1?
#80786
0;
09
#80836
07
#81009
08
#83881
1@
#83903
0:
#84272
0<
#90000
1!
#90730
17
#90917
18
#93318
0R
0Q
1P
0F
1J
#94168
0K
#94196
1G
#94199
1A
#96650
14
1%
#96970
02
0'
#100000
b101 "
0!
#100680
19
#100836
07
#101009
08
#103561
1:
#110000
1!
#110730
17
#110917
18
#113318
1R
1B
1H
0L
#114038
1C
#114064
0A
#114085
0G
#116652
13
1&
#116850
05
0$
#116941
10
1)
#120000
b111 "
b110 "
0!
#120680
1;
#120786
09
#120836
07
#121009
08
#123903
0:
#123935
1<
#130000
1!
#130730
17
#130917
18
#133318
0R
1Q
0B
1D
0H
#134013
0I
#136662
03
0&
#136929
11
1(
#136949
00
0)
#140000
b111 "
0!
#140680
19
#140836
07
#141009
08
#143561
1:
#150000
1!
#150730
17
#150917
18
#153318
1R
0J
#153905
1I
#154004
1M
#154055
0C
#154070
1K
#154074
1G
#156662
04
0%
#160000
b1111 "
b1011 "
b1001 "
b1000 "
0!
#160640
1=
#160776
0?
#160786
0;
09
#160836
07
#161009
08
#163900
1>
#163903
0:
#164217
0@
#164272
0<
#170000
1!
#170730
17
#170917
18
#173318
0R
0Q
1O
0P
0D
1H
1J
1L
1N
#173856
0G
#173902
0M
#173903
0K
#174100
0I
#176650
14
1%
#176652
13
1&
#176875
15
1$
#176938
01
0(
#176949
16
1#
#180000
b1001 "
0!
#180680
19
#180836
07
#181009
08
#183561
1:
#190000
1!
#190730
17
#190917
18
#193318
1R
0H
0J
0L
0N
#193905
1I
#196662
04
03
0&
0%
#196850
05
0$
#196960
06
0#
#200000
b1011 "
b1010 "
0!
#200680
1;
#200786
09
#200836
07
#201009
08
#203903
0:
#203935
1<
#210000
1!
#210730
17
#210917
18
#213318
0R
1Q
1J
#213760
0I
#214196
1G
#216650
14
1%
#220000
b1011 "
0!
#220680
19
#220836
07
#221009
08
#223561
1:
#230000
1!
#230730
17
#230917
18
#233318
1R
1H
0J
#234038
1C
#234077
1A
#234085
0G
#236652
13
1&
#236662
04
0%
#240000
b1111 "
b1101 "
b1100 "
0!
#240670
1?
#240786
0;
09
#240836
07
#241009
08
#243881
1@
#243903
0:
#244272
0<
#250000
1!
#250730
17
#250917
18
#253318
0R
0Q
1P
1B
1D
0H
#253756
0A
#254013
1E
#254124
1M
#256662
03
0&
#256929
11
1(
#256941
10
1)
#260000
b1101 "
0!
#260680
19
#260836
07
#261009
08
#263561
1:
#270000
1!
#270730
17
#270917
18
#273318
1R
0B
1F
1N
#273894
0E
#274008
0M
#274055
0C
#274070
1K
#274077
1A
#276949
00
16
1#
0)
#276959
12
1'
#280000
b1111 "
b1110 "
0!
#280680
1;
#280786
09
#280836
07
#281009
08
#283903
0:
#283935
1<
#290000
1!
#290730
17
#290917
18
#293318
0R
1Q
1B
0D
0F
1L
0N
#293775
1E
#294044
1C
#294058
0K
#294099
0A
#296875
15
1$
#296938
01
0(
#296941
10
1)
#296960
06
0#
#296970
02
0'
#300000
b1111 "
0!
#300680
19
#300836
07
#301009
08
#303561
1:
#310000
1!
#310730
17
#310917
18
#313318
1R
0B
1D
1F
0L
#314074
1G
#316850
05
0$
#316929
11
1(
#316949
00
0)
#316959
12
1'
