Lab2/TopDE_restored/simulation/qsim/TopDE.msim.vcd
$comment
	File created using the following command:
		vcd file TopDE.msim.vcd -direction
$end
$date
	Thu May 29 15:48:03 2025
$end
$version
	ModelSim Version 10.5b
$end
$timescale
	1ps
$end

$scope module ALUControl_vlg_vec_tst $end
$var reg 2 ! iALUOp [1:0] $end
$var reg 32 " iInstruction [31:0] $end
$var wire 1 # oControl [4] $end
$var wire 1 $ oControl [3] $end
$var wire 1 % oControl [2] $end
$var wire 1 & oControl [1] $end
$var wire 1 ' oControl [0] $end

$scope module i1 $end
$var wire 1 ( gnd $end
$var wire 1 ) vcc $end
$var wire 1 * unknown $end
$var tri1 1 + devclrn $end
$var tri1 1 , devpor $end
$var tri1 1 - devoe $end
$var wire 1 . iInstruction[0]~input_o $end
$var wire 1 / iInstruction[1]~input_o $end
$var wire 1 0 iInstruction[2]~input_o $end
$var wire 1 1 iInstruction[3]~input_o $end
$var wire 1 2 iInstruction[4]~input_o $end
$var wire 1 3 iInstruction[5]~input_o $end
$var wire 1 4 iInstruction[6]~input_o $end
$var wire 1 5 iInstruction[7]~input_o $end
$var wire 1 6 iInstruction[8]~input_o $end
$var wire 1 7 iInstruction[9]~input_o $end
$var wire 1 8 iInstruction[10]~input_o $end
$var wire 1 9 iInstruction[11]~input_o $end
$var wire 1 : iInstruction[15]~input_o $end
$var wire 1 ; iInstruction[16]~input_o $end
$var wire 1 < iInstruction[17]~input_o $end
$var wire 1 = iInstruction[18]~input_o $end
$var wire 1 > iInstruction[19]~input_o $end
$var wire 1 ? iInstruction[20]~input_o $end
$var wire 1 @ iInstruction[21]~input_o $end
$var wire 1 A iInstruction[22]~input_o $end
$var wire 1 B iInstruction[23]~input_o $end
$var wire 1 C iInstruction[24]~input_o $end
$var wire 1 D oControl[0]~output_o $end
$var wire 1 E oControl[1]~output_o $end
$var wire 1 F oControl[2]~output_o $end
$var wire 1 G oControl[3]~output_o $end
$var wire 1 H oControl[4]~output_o $end
$var wire 1 I iALUOp[1]~input_o $end
$var wire 1 J iInstruction[14]~input_o $end
$var wire 1 K iInstruction[13]~input_o $end
$var wire 1 L iInstruction[30]~input_o $end
$var wire 1 M Mux2~0_combout $end
$var wire 1 N iALUOp[0]~input_o $end
$var wire 1 O iInstruction[29]~input_o $end
$var wire 1 P iInstruction[28]~input_o $end
$var wire 1 Q iInstruction[31]~input_o $end
$var wire 1 R iInstruction[26]~input_o $end
$var wire 1 S iInstruction[12]~input_o $end
$var wire 1 T iInstruction[25]~input_o $end
$var wire 1 U iInstruction[27]~input_o $end
$var wire 1 V Equal0~0_combout $end
$var wire 1 W Equal0~1_combout $end
$var wire 1 X Mux2~1_combout $end
$var wire 1 Y Equal0~2_combout $end
$var wire 1 Z Mux1~0_combout $end
$var wire 1 [ Mux0~0_combout $end
$var wire 1 \ Mux0~1_combout $end
$upscope $end
$upscope $end
$enddefinitions $end
#0
$dumpvars
b0 !
b101010001100000011 "
1'
1&
0%
0$
0#
0(
1)
x*
1+
1,
1-
1.
1/
00
01
02
03
04
05
16
17
08
09
1:
0;
1<
0=
0>
0?
0@
0A
0B
0C
1D
1E
0F
0G
0H
0I
0J
1K
0L
1M
0N
0O
0P
0Q
0R
0S
0T
0U
1V
1W
1X
0Y
1Z
1[
0\
$end
#70000
b10000101010001100000011 "
b11000101010001100000011 "
b11000101010000100000011 "
b11000101010000000000011 "
b11000101010000000100011 "
13
06
07
1@
1A
#150000
b1 !
b10000000011000101010000000100011 "
b11000000011000101010000000100011 "
b11100000011000101010000000100011 "
b11110000011000101010000000100011 "
b11111000011000101010000000100011 "
b11111100011000101010000000100011 "
b11111110011000101010000000100011 "
b11111110011100101010000000100011 "
b11111110011100101000000000100011 "
b11111110011100101000100000100011 "
b11111110011100101000100010100011 "
b11111110011100101000100011100011 "
b11111110010100101000100011100011 "
14
15
19
0K
1?
0@
1T
1R
1U
1P
1O
1L
1Q
1N
0M
0V
0W
1\
0Z
0X
0D
0E
1F
1%
0&
0'
#240000
b11 !
b11111110010100101000100011110011 "
b11111110010100101000101011110011 "
b10 !
b1111110010100101000101011110011 "
b111110010100101000101011110011 "
b11110010100101000101011110011 "
b1110010100101000101011110011 "
b110010100101000101011110011 "
b10010100101000101011110011 "
b10100101000101011110011 "
b10100101000001011110011 "
b10100101000001010110011 "
12
04
17
09
0T
0R
0U
0P
0O
0L
0Q
0N
1I
1V
0[
1M
0\
0F
1W
0%
1Y
1X
1D
1'
1Z
1E
1&
#310000
b10100101100001010110011 "
b10100101101001010110011 "
b10100101111001010110011 "
1S
1K
1J
0V
0Y
0W
0Z
0E
0&
0X
0D
0'
#370000
b10100101110001010110011 "
0S
1V
1W
1X
1D
1'
#430000
b1000000010100101110001010110011 "
b1000000010100101010001010110011 "
b1000000010100101000001010110011 "
0K
0J
1L
1[
0M
1\
0X
0D
1F
1%
0'
#500000
b10100101000001010110011 "
b10100101010001010110011 "
1K
0L
1M
1X
1D
1'
#560000
b100101010001010110011 "
b100101010001010010011 "
b0 !
b100101000001010010011 "
0I
03
0K
0A
0[
1Y
0\
1Z
1E
0F
0%
1&
#640000
b100100101000001010010011 "
b100100101000001010010111 "
b100000101000001010010111 "
b101000101000001010010111 "
b101000101000001010000111 "
b101000101000001011000111 "
b101000101000001011100111 "
10
02
13
14
0?
1@
1B
#720000
b1101000101000001011100111 "
b1101010101000001011100111 "
b1101011101000001011100111 "
b1101011111000001011100111 "
b1101011111000001011101111 "
b10000001101011111000001011101111 "
b10100001101011111000001011101111 "
b10110001101011111000001011101111 "
b10111001101011111000001011101111 "
b10111101101011111000001011101111 "
b10111111101011111000001011101111 "
b10111111101011111001001011101111 "
b10111111101011111101001011101111 "
b11111111101011111101001011101111 "
b11111111111011111101001011101111 "
b11111111111011111111001011101111 "
b11111111111111111111001011101111 "
b11111111110111111111001011101111 "
11
1S
1K
1J
1;
1=
1>
1?
0@
1A
1C
1T
1R
1U
1P
1O
1L
1Q
0V
0Y
0M
0W
#820000
b11111111110111011111001011101111 "
b11111111110111010111001011101111 "
b11111111110111010111001011101101 "
b11111111110111010111001011101100 "
b11111111110111010111001001101100 "
b11111111110111010111000001101100 "
b11111111010111010111000001101100 "
b11111111010111010111000001101000 "
b11111111010111010111000000101000 "
b11111111010111010111000000001000 "
b11111110010111010111000000001000 "
b11111110010101010111000000001000 "
b11111110010100010111000000001000 "
b11111110010100000111000000001000 "
b11111110010100000111000000000000 "
b1111110010100000111000000000000 "
b1011110010100000111000000000000 "
b1001110010100000111000000000000 "
b1000110010100000111000000000000 "
b1000010010100000111000000000000 "
b1000000010100000111000000000000 "
b1000000010100000110000000000000 "
b1000000010100000010000000000000 "
b10100000010000000000000 "
b100000010000000000000 "
b100000000000000000000 "
b0 "
0.
0/
00
01
03
04
05
07
0S
0K
0J
0:
0;
0<
0=
0>
0?
0A
0B
0C
0T
0R
0U
0P
0O
0L
0Q
1V
1M
1W
1Y
#940000
b10 !
1I
