Lab2/TopDE_restored/simulation/qsim/TopDE.msim.vcd
$comment
	File created using the following command:
		vcd file TopDE.msim.vcd -direction
$end
$date
	Fri May 30 14:33:32 2025
$end
$version
	ModelSim Version 10.5b
$end
$timescale
	1ps
$end

$scope module CPUControl_vlg_vec_tst $end
$var reg 32 ! iInstruction [31:0] $end
$var wire 1 " oALUOp [1] $end
$var wire 1 # oALUOp [0] $end
$var wire 1 $ oALUSrc $end
$var wire 1 % oBranch $end
$var wire 1 & oMemRead $end
$var wire 1 ' oMemWrite $end
$var wire 1 ( oMemtoReg $end
$var wire 1 ) oRegWrite $end

$scope module i1 $end
$var wire 1 * gnd $end
$var wire 1 + vcc $end
$var wire 1 , unknown $end
$var tri1 1 - devclrn $end
$var tri1 1 . devpor $end
$var tri1 1 / devoe $end
$var wire 1 0 iInstruction[7]~input_o $end
$var wire 1 1 iInstruction[8]~input_o $end
$var wire 1 2 iInstruction[9]~input_o $end
$var wire 1 3 iInstruction[10]~input_o $end
$var wire 1 4 iInstruction[11]~input_o $end
$var wire 1 5 iInstruction[15]~input_o $end
$var wire 1 6 iInstruction[16]~input_o $end
$var wire 1 7 iInstruction[17]~input_o $end
$var wire 1 8 iInstruction[18]~input_o $end
$var wire 1 9 iInstruction[19]~input_o $end
$var wire 1 : iInstruction[20]~input_o $end
$var wire 1 ; iInstruction[21]~input_o $end
$var wire 1 < iInstruction[22]~input_o $end
$var wire 1 = iInstruction[23]~input_o $end
$var wire 1 > iInstruction[24]~input_o $end
$var wire 1 ? oALUSrc~output_o $end
$var wire 1 @ oMemtoReg~output_o $end
$var wire 1 A oRegWrite~output_o $end
$var wire 1 B oMemRead~output_o $end
$var wire 1 C oMemWrite~output_o $end
$var wire 1 D oBranch~output_o $end
$var wire 1 E oALUOp[0]~output_o $end
$var wire 1 F oALUOp[1]~output_o $end
$var wire 1 G iInstruction[5]~input_o $end
$var wire 1 H iInstruction[3]~input_o $end
$var wire 1 I iInstruction[12]~input_o $end
$var wire 1 J iInstruction[14]~input_o $end
$var wire 1 K Equal2~0_combout $end
$var wire 1 L iInstruction[1]~input_o $end
$var wire 1 M iInstruction[0]~input_o $end
$var wire 1 N WideNor0~0_combout $end
$var wire 1 O iInstruction[13]~input_o $end
$var wire 1 P iInstruction[6]~input_o $end
$var wire 1 Q iInstruction[4]~input_o $end
$var wire 1 R iInstruction[2]~input_o $end
$var wire 1 S WideNor2~0_combout $end
$var wire 1 T WideNor4~combout $end
$var wire 1 U WideOr1~2_combout $end
$var wire 1 V WideNor0~1_combout $end
$var wire 1 W WideNor3~0_combout $end
$var wire 1 X WideNor3~combout $end
$var wire 1 Y WideOr1~3_combout $end
$var wire 1 Z WideOr0~combout $end
$var wire 1 [ iInstruction[30]~input_o $end
$var wire 1 \ WideOr1~5_combout $end
$var wire 1 ] Equal0~0_combout $end
$var wire 1 ^ iInstruction[25]~input_o $end
$var wire 1 _ Equal0~1_combout $end
$var wire 1 ` iInstruction[31]~input_o $end
$var wire 1 a iInstruction[27]~input_o $end
$var wire 1 b iInstruction[28]~input_o $end
$var wire 1 c iInstruction[29]~input_o $end
$var wire 1 d iInstruction[26]~input_o $end
$var wire 1 e Equal0~2_combout $end
$var wire 1 f Equal0~3_combout $end
$var wire 1 g WideOr1~6_combout $end
$var wire 1 h WideNor2~combout $end
$var wire 1 i WideOr1~4_combout $end
$var wire 1 j WideOr1~7_combout $end
$var wire 1 k WideOr1~9_combout $end
$var wire 1 l WideOr1~8_combout $end
$var wire 1 m WideNor1~combout $end
$upscope $end
$upscope $end
$enddefinitions $end
#0
$dumpvars
b10100101111001010110011 !
0#
1"
0$
0%
0&
0'
0(
1)
0*
1+
x,
1-
1.
1/
10
01
12
03
04
15
06
17
08
09
1:
0;
1<
0=
0>
0?
0@
1A
0B
0C
0D
0E
1F
1G
0H
1I
1J
0K
1L
1M
0N
1O
0P
1Q
0R
0S
1T
0U
0V
1W
1X
1Y
0Z
0[
0\
1]
0^
1_
0`
0a
0b
0c
0d
1e
1f
0g
1h
0i
1j
1k
0l
1m
$end
#50000
b10100101110001010110011 !
0I
#130000
b10100101010001010110011 !
0J
1K
1N
#200000
b1000000010100101010001010110011 !
b1000000010100101000001010110011 !
0O
1[
1\
#260000
b10100101000001010110011 !
0[
0\
#340000
b100010100101000001010110011 !
b110010100101000001010110011 !
b110010000101000001010110011 !
b110010000101000001011110011 !
b110010000101000001011100011 !
b110010000101000001011100111 !
1R
0Q
1P
0:
1^
1d
0j
0_
1U
0e
0f
1V
1g
0Y
0F
0"
1Z
1?
1$
#420000
b10000110010000101000001011100111 !
b10100110010000101000001011100111 !
b10110110010000101000001011100111 !
b10111110010000101000001011100111 !
b10111110010000101000101011100111 !
b10111110010000101000111011100111 !
b11111110010000101000111011100111 !
b11111110010100101000111011100111 !
b11111110010100101000111011100011 !
0R
13
14
1:
1a
1b
1c
1[
1`
0m
1j
1i
1Y
1\
1E
1D
1l
1%
1#
0Z
0?
0A
0)
0$
#490000
b11111110010100001000111011100011 !
b11111110010100011000111011100011 !
b11111110010100010000111011100011 !
b11111110010100010000110011100011 !
b11111110010100010000110001100011 !
b11111110010100010010110001100011 !
b11111010010100010010110001100011 !
b11111000010100010010110001100011 !
b11111000010100010010110000100011 !
b1111000010100010010110000100011 !
b1011000010100010010110000100011 !
b1001000010100010010110000100011 !
b1000000010100010010110000100011 !
b1000000010100010010010000100011 !
b1000000010100010010000000100011 !
b10100010010000000100011 !
0P
00
02
03
04
1O
05
16
07
0^
0d
0a
0b
0c
0[
0`
0U
1S
0V
1e
0\
0h
1m
0i
1Z
1?
0E
0D
1C
1i
1'
0%
0#
1$
#550000
b100010010000000100011 !
b100010010000000000011 !
b100010010000000010011 !
b100110010000000010011 !
b100100010000000010011 !
b100101010000000010011 !
b100101010001000010011 !
b100101010001010010011 !
b100101000001010010011 !
1Q
0G
10
12
0O
15
06
17
0<
1_
0W
0S
1h
0]
0T
0Z
0?
1B
1@
0C
0X
1T
0i
0Y
0'
1(
1&
0$
0B
0@
0l
0(
0&
1Z
1?
1A
1)
1$
#630000
b101000001010010011 !
b101000001010000011 !
b1000001010000011 !
b11000001010000011 !
b10000001010000011 !
b10010001010000011 !
0Q
1O
05
16
07
0:
0_
1W
1S
1X
0T
1Y
1B
1@
0Y
1l
1(
1&
0Z
0?
0A
0l
0)
0$
1Z
1?
1A
1)
1$
#690000
b100000010010001010000011 !
b100010010010001010000011 !
b100011010010001010000011 !
b100011010010001010001011 !
b100011010011001010001011 !
b100011010111001010001011 !
b100011010111001010001111 !
b100100011010111001010001111 !
b110100011010111001010001111 !
b110100011010111001011001111 !
b10000110100011010111001011001111 !
b10100110100011010111001011001111 !
b10110110100011010111001011001111 !
b10111110100011010111001011001111 !
b11111110100011010111001011001111 !
b11111110110011010111001011001111 !
b11111110110011010111001011101111 !
b11111110110111010111001011101111 !
b11111110110111110111001011101111 !
b11111110110111111111001011101111 !
1R
1H
1G
1P
1I
1J
15
17
18
19
1:
1<
1=
1^
1d
1a
1b
1c
1[
1`
0j
0S
0N
0h
1T
1U
1\
0K
0e
0B
0@
1C
0k
1h
1i
1Y
1'
0(
0&
0C
1l
0i
0'
0Z
0?
0A
0l
0)
0$
1A
1)
#770000
b11111110110111111111001011101101 !
b11111110110111111111001011101100 !
b11111110110111111111000011101100 !
b11111110110111111111000001101100 !
b11111110110111101111000001101100 !
b11111110110111101101000001101100 !
b11111110010111101101000001101100 !
b11111110010101101101000001101100 !
b11111110010100101101000001101100 !
b11111110010100101101000001100100 !
b11111110010100101100000001100100 !
b11111110010100101000000001100100 !
b11111110010100101000000001100000 !
b11111010010100101000000001100000 !
b11111000010100101000000001100000 !
b11111000010100101000000000100000 !
b1111000010100101000000000100000 !
b1011000010100101000000000100000 !
b1001000010100101000000000100000 !
b1000000010100101000000000100000 !
b10100101000000000100000 !
b100101000000000100000 !
b100101000000000000000 !
b101000000000000000 !
b1000000000000000 !
b0 !
0M
0L
0R
0H
0G
0P
00
02
0I
0O
0J
05
06
07
08
09
0:
0<
0=
0^
0d
0a
0b
0c
0[
0`
1j
1k
0U
0\
1K
1e
1l
0A
0)
